eta,200,500,1000,1500,2000,35786
0,0.9401,0.8618,0.7527,0.6613,0.5883,0.0239
30,0.8284,0.7512,0.6522,0.5727,0.5099,0.0208
60,0.6026,0.5186,0.4216,0.3572,0.3109,0.012
90,0.3476,0.2746,0.198,0.1528,0.1228,0.0008
120,0.1324,0.0875,0.0467,0.0274,0.0166,0
150,0.014,0.0045,0.0006,0,0,0
