"AKEBONO (EXOS-D)        
1 19822U 89016A   17170.42788377  .00030513  43694-6  60559-3 0  9990
2 19822  75.0364 288.3366 1910204 180.8019 178.9803 11.68621661909517
HST                     
1 20580U 90037B   17170.59384323  .00000512  00000-0  20560-4 0  9992
2 20580  28.4706 351.6179 0002718 196.4986 233.0942 15.08784592290561
POLAR                   
1 23802U 96013A   17170.28668612 -.00000255  00000-0  00000-0 0  9992
2 23802  78.4133 270.0249 7366210 322.6815   4.0629  1.29842937102187
SWAS                    
1 25560U 98071A   17170.46047499  .00000167  00000-0  24478-4 0  9995
2 25560  69.8993 255.2301 0008872 204.9065 155.1663 14.93386205  5668
ORSTED                  
1 25635U 99008B   17170.33745913  .00000077  00000-0  26424-4 0  9994
2 25635  96.4822  75.4407 0137402 240.4689 118.2751 14.47997081966265
CXO                     
1 25867U 99040B   17172.01035479  .00000573  00000-0  00000-0 0  9992
2 25867  74.0062 290.0288 6814566 251.7578   0.4606  0.37799379  4935
XMM-NEWTON              
1 25989U 99066A   17171.67384333 -.00000698  00000-0  00000-0 0  9991
2 25989  69.0621   3.7859 8201038  95.8652 359.9289  0.50145830  6533
TERRA                   
1 25994U 99068A   17170.40231576  .00000125  00000-0  37772-4 0  9993
2 25994  98.2062 245.4162 0001192  78.7756 281.3575 14.57113306930997
CLUSTER II-FM6 (SALSA)  
1 26410U 00041A   17171.90393521  .00000417  00000-0  00000-0 0  9999
2 26410 130.9601 333.0064 4452795 151.7286 359.7412  0.44241159  5769
CLUSTER II-FM7 (SAMBA)  
1 26411U 00041B   17160.58502327  .00000320  00000-0  00000-0 0  9991
2 26411 130.0024 334.2963 5107118 159.1649 359.9006  0.44225336 17542
CLUSTER II-FM5 (RUMBA)  
1 26463U 00045A   17160.60289560  .00000362  00000-0  00000-0 0  9992
2 26463 133.5325 332.6171 4812625 157.2417 359.9193  0.44224599 18044
CLUSTER II-FM8 (TANGO)  
1 26464U 00045B   17168.88942444  .00000530  00000-0  00000-0 0  9995
2 26464 130.9681 332.9722 4459794 151.6507 242.2749  0.44218118  5764
ODIN                    
1 26702U 01007A   17170.55633291  .00000137  00000-0  13229-4 0  9997
2 26702  97.6095 187.5845 0012272  50.4811 309.7499 15.07178960891403
TIMED                   
1 26998U 01055B   17170.56844785  .00000101  00000-0  15082-4 0  9990
2 26998  74.0725 310.3857 0001821 302.6435  57.4570 14.87903598841783
RHESSI                  
1 27370U 02004A   17170.08671813  .00002547  00000-0  94563-4 0  9994
2 27370  38.0338  37.2166 0009890  58.7874 301.3864 15.28495262846564
INTEGRAL                
1 27540U 02048A   17171.54101070  .00000820  00000-0  00000-0 0  9997
2 27540  49.8082 188.5134 8265284 262.1117   0.3227  0.37587409  3635
CORIOLIS                
1 27640U 03001A   17170.57895531  .00000011  00000-0  26277-4 0  9992
2 27640  98.7424 180.7714 0013046 303.4724 209.1048 14.18945414748307
SORCE                   
1 27651U 03004A   17170.52211493  .00000123  00000-0  27149-4 0  9994
2 27651  39.9966 308.6977 0024375 255.3187 104.4899 14.88674692781137
MOST                    
1 27843U 03031D   17170.51021397  .00000013  00000-0  26588-4 0  9992
2 27843  98.7129 178.6127 0010156  13.8132 346.3321 14.20548842724288
SCISAT 1                
1 27858U 03036A   17170.47383887  .00000085  00000-0  17008-4 0  9999
2 27858  73.9316 183.7397 0009419 282.3724  77.6395 14.77135226746114
SWIFT                   
1 28485U 04047A   17170.22762537  .00000831  00000-0  27135-4 0  9996
2 28485  20.5562 120.4681 0011160 263.2407  96.6756 15.03738096688513
FORMOSAT-3 FM6          
1 29047U 06011A   17170.42790776  .00000047  00000-0  34880-4 0  9996
2 29047  71.9777 182.6144 0049501 150.3611 210.0347 14.28585003585072
FORMOSAT-3 FM1          
1 29048U 06011B   17170.54699363  .00000064  00000-0  41524-4 0  9992
2 29048  71.9679  94.5226 0042507 104.5355 256.0502 14.28518592587581
FORMOSAT-3 FM5          
1 29049U 06011C   17170.60347619  .00000043  00000-0  33198-4 0  9999
2 29049  72.0205 259.8729 0034046 142.6436 217.7078 14.28570754583378
FORMOSAT-3 FM3          
1 29050U 06011D   17170.48622324  .00000185  00000-0  49641-4 0  9993
2 29050  72.0148 157.6433 0049309 154.7292 205.6289 14.58515829596903
FORMOSAT-3 FM4          
1 29051U 06011E   17170.41477580  .00000071  00000-0  43668-4 0  9996
2 29051  72.0043 164.3311 0067965  15.0193 345.2940 14.28593014585930
FORMOSAT-3 FM2          
1 29052U 06011F   17170.55871239  .00000017  00000-0  22725-4 0  9992
2 29052  72.0341 234.9976 0038586 103.4416 257.1026 14.28686960583454
CLOUDSAT                
1 29107U 06016A   17170.56111175  .00000044  00000-0  19836-4 0  9994
2 29107  98.2032 114.4902 0001995  75.2506 284.8913 14.57124931592610
CALIPSO                 
1 29108U 06016B   17170.55996135  .00000115  00000-0  35476-4 0  9998
2 29108  98.2040 114.0453 0001492  81.0278 279.1089 14.57122408592685
HINODE (SOLAR-B)        
1 29479U 06041A   17170.56486211  .00000077  00000-0  23500-4 0  9999
2 29479  98.1655 175.0148 0016423 206.3007 153.7363 14.64828145573733
SJ-6C                   
1 29505U 06046A   17170.49055488  .00000156  00000-0  19831-4 0  9994
2 29505  97.8199 172.4513 0004531  82.3936 277.7815 14.94330571580213
SJ-6D                   
1 29506U 06046B   17170.45875810 -.00000587  00000-0 -50628-4 0  9999
2 29506  97.8389 171.7401 0002887 122.4257 237.7248 14.93273120579890
AGILE                   
1 31135U 07013A   17170.13761693  .00002420  00000-0  43840-4 0  9997
2 31135   2.4674  93.8303 0012598  28.1713 331.9022 15.29702447196626
AIM                     
1 31304U 07015A   17170.53885655  .00000523  00000-0  34589-4 0  9998
2 31304  98.0003 349.6321 0006493 121.0855 239.1012 15.12056584555296
FGRST (GLAST)           
1 33053U 08029A   17170.58534400  .00000505  00000-0  12328-4 0  9998
2 33053  25.5837 347.4083 0012240 310.9784  48.9692 15.10903069497660
IBEX                    
1 33401U 08051A   17162.83686537 -.00002739  00000-0  00000-0 0  9990
2 33401  26.0179  93.9503 6586277  22.5731 356.6008  0.10313265  3639
WISE                    
1 36119U 09071A   17170.52514311  .00000975  00000-0  38089-4 0  9998
2 36119  97.4502 198.3191 0001651 345.3986  14.7206 15.28290056416618
SDO                     
1 36395U 10005A   17169.43316045 -.00000035  00000-0  00000-0 0  9991
2 36395  28.7658 140.4053 0000373 131.4574  49.2461  1.00271298 27082
CRYOSAT 2               
1 36508U 10013A   17170.56848904  .00000046  00000-0  10704-4 0  9993
2 36508  92.0144 202.8916 0006867 352.4981   7.6122 14.52180168381524
GCOM-W1 (SHIZUKU)       
1 38337U 12025A   17170.50723101  .00000038  00000-0  18585-4 0  9991
2 38337  98.2047 110.6829 0001865  65.4463  39.2833 14.57102576270703
NUSTAR                  
1 38358U 12031A   17170.19712750  .00000948  00000-0  25964-4 0  9993
2 38358   6.0269 294.7121 0012224 321.5235  38.4023 14.87753808272743
RBSP A                  
1 38752U 12046A   17170.41292780 -.00000052  00000-0 -50869-3 0  9997
2 38752   9.7371 190.5662 6811732 138.1517 301.3985  2.68110249 46931
RBSP B                  
1 38753U 12046B   17170.16044910 -.00000059  00000-0 -49931-3 0  9995
2 38753   9.6953 200.8591 6832151 118.5756 325.0756  2.65135824 46581
NEOSSAT                 
1 39089U 13009D   17170.61189593  .00000011  00000-0  19546-4 0  9991
2 39089  98.5546  14.0379 0010007 294.2676  65.7463 14.34388448225733
BRITE-AUSTRIA           
1 39091U 13009F   17170.54641340 -.00000005  00000-0  13806-4 0  9996
2 39091  98.5503  15.3493 0009539 305.3301  54.6992 14.35030491225824
UNIBRITE                
1 39092U 13009G   17170.54597907  .00000008  00000-0  18139-4 0  9992
2 39092  98.5512  15.0394 0008333 298.4978  61.5368 14.34905019225814
IRIS                    
1 39197U 13033A   17170.53004511  .00000132  00000-0  25215-4 0  9999
2 39197  97.9269 351.9992 0028161 164.9952 195.2100 14.78400204214437
HISAKI (SPRINT-A)       
1 39253U 13049A   17170.47277156  .00000129  00000-0  91022-4 0  9994
2 39253  29.7211 352.8896 0136788  37.5157 323.4873 13.55176440185503
CASSIOPE                
1 39265U 13055A   17170.56961340  .00002051  00000-0  60617-4 0  9991
2 39265  80.9709  12.6116 0687080 246.0965 106.6804 14.22836688191855
DANDE                   
1 39267U 13055C   17170.59887632  .00001288  00000-0  38786-4 0  9990
2 39267  81.0123  23.7793 0712281 264.2225  87.7388 14.17076837189035
STSAT-3                 
1 39422U 13066G   17166.33534683  .00001096  00000-0  11477-3 0  9991
2 39422  97.6560 228.9051 0022374 239.6431 120.3227 14.89446439193651
BRITE-PL                
1 39431U 13066R   17170.53929172  .00000127  00000-0  36630-4 0  9992
2 39431  97.7062 148.0879 0204051 108.2962 254.0550 14.46843999188599
SWARM B                 
1 39451U 13067A   17170.59129946  .00000405  00000-0  16681-4 0  9995
2 39451  87.7544 247.1272 0003772  78.0792 282.0876 15.21022321183651
SWARM A                 
1 39452U 13067B   17170.57111822  .00001261  00000-0  28379-4 0  9996
2 39452  87.3492 169.6479 0002646  74.9774 285.1775 15.42179082200462
SWARM C                 
1 39453U 13067C   17170.57102283  .00001267  00000-0  28512-4 0  9993
2 39453  87.3494 171.0647 0002620  74.9964 285.1582 15.42179696200425
BRITE-TORONTO           
1 40020U 14033L   17170.56074013  .00000062  00000-0  19387-4 0  9999
2 40020  97.8359  41.2342 0086730 320.2586  39.2285 14.66391960160433
OCO 2                   
1 40059U 14035A   17170.48535228  .00000034  00000-0  17518-4 0  9997
2 40059  98.2044 111.8419 0001346  66.9137 293.2204 14.57118590157734
BRITE-PL 2              
1 40119U 14049B   17170.43963224  .00000129  00000-0  21973-4 0  9990
2 40119  97.9361 256.3292 0019028  82.9493 277.3884 14.84139879153402
RESURS P2               
1 40360U 14087A   17170.53815972  .00001835  00000-0  62109-4 0  9998
2 40360  97.2754 264.1980 0011759 133.6774  45.2059 15.31810947138740
MMS 1                   
1 40482U 15011A   17169.81097590 -.00001524  00000-0  00000-0 0  9992
2 40482  26.2325 309.6658 9041290 154.7271  12.3835  0.35721917  7665
MMS 2                   
1 40483U 15011B   17169.81062637 -.00001524  00000-0  00000-0 0  9997
2 40483  26.2309 309.6676 9043064 154.7238  12.3509  0.35722335  7654
MMS 3                   
1 40484U 15011C   17170.66666667 -.00001626  00000-0  00000-0 0  9999
2 40484  26.2122 309.6367 9043403 154.7842 122.3938  0.35719201  7457
MMS 4                   
1 40485U 15011D   17170.66666667 -.00001626  00000-0  00000-0 0  9990
2 40485  26.2204 309.6549 9043124 154.7633 122.4123  0.35719310  7659
ASTROSAT                
1 40930U 15052A   17170.35992182  .00000757  00000-0  17441-4 0  9994
2 40930   5.9979 219.8636 0008475 279.3299  80.6046 14.76125651 93270
DAMPE                   
1 41173U 15078A   17170.51197884  .00000079  00000-0  61543-5 0  9996
2 41173  97.2888 178.4871 0014677 141.3781   9.7043 15.23565931 83819
PISAT                   
1 41784U 16059B   17170.48769998  .00000106  00000-0  29749-4 0  9993
2 41784  98.1671 231.9971 0032787 151.0603 209.2426 14.63223153 38919
HXMT                    
1 42758U 17034A   17170.58306713 -.00000217  00000-0  00000-0 0  9991
2 42758  43.0180 273.3492 0006132   7.0314 195.3650 15.08374279   679
"
