"METEOSAT-7              
1 24932U 97049B   17169.66621442 -.00000008  00000-0  00000-0 0  9993
2 24932  10.6552  37.3122 0009725 316.4550  43.4366  0.98308134 72456
NOAA 15                 
1 25338U 98030A   17170.53079356  .00000077  00000-0  51127-4 0  9999
2 25338  98.7814 181.4463 0010259 193.6856 166.4046 14.25799975993075
METEOSAT-8 (MSG-1)      
1 27509U 02040B   17170.12299880  .00000139  00000-0  00000-0 0  9997
2 27509   4.8441  58.3519 0001369 191.0003 103.7892  1.00267395 54316
KALPANA-1 (METSAT 1)    
1 27525U 02043A   17170.20518645 -.00000083  00000-0  00000-0 0  9999
2 27525   6.3541  55.2294 0012302 233.3919 126.3613  1.00272610 54120
INSAT-3A                
1 27714U 03013A   17170.05613742 -.00000058  00000-0  00000-0 0  9996
2 27714   1.1596  87.9952 0012554 239.8870  42.3161  0.99796490 51993
NOAA 18                 
1 28654U 05018A   17170.60488661 -.00000012  00000-0  18615-4 0  9993
2 28654  99.1819 192.8784 0015358  67.1591 293.1199 14.12340080622506
METEOSAT-9 (MSG-2)      
1 28912U 05049B   17170.06760931  .00000060  00000-0  00000-0 0  9994
2 28912   2.2064  71.0810 0000146 354.7282 235.2946  1.00268446 42139
HIMAWARI-7 (MTSAT-2)    
1 28937U 06004A   17170.36936808 -.00000244  00000-0  00000-0 0  9999
2 28937   0.0245 153.2907 0003727 302.5464  89.9103  1.00270609 41541
FORMOSAT-3 FM6          
1 29047U 06011A   17170.42790776  .00000047  00000-0  34880-4 0  9996
2 29047  71.9777 182.6144 0049501 150.3611 210.0347 14.28585003585072
FORMOSAT-3 FM1          
1 29048U 06011B   17170.54699363  .00000064  00000-0  41524-4 0  9992
2 29048  71.9679  94.5226 0042507 104.5355 256.0502 14.28518592587581
FORMOSAT-3 FM5          
1 29049U 06011C   17170.60347619  .00000043  00000-0  33198-4 0  9999
2 29049  72.0205 259.8729 0034046 142.6436 217.7078 14.28570754583378
FORMOSAT-3 FM3          
1 29050U 06011D   17170.48622324  .00000185  00000-0  49641-4 0  9993
2 29050  72.0148 157.6433 0049309 154.7292 205.6289 14.58515829596903
FORMOSAT-3 FM4          
1 29051U 06011E   17170.41477580  .00000071  00000-0  43668-4 0  9996
2 29051  72.0043 164.3311 0067965  15.0193 345.2940 14.28593014585930
FORMOSAT-3 FM2          
1 29052U 06011F   17170.55871239  .00000017  00000-0  22725-4 0  9992
2 29052  72.0341 234.9976 0038586 103.4416 257.1026 14.28686960583454
GOES 13                 
1 29155U 06018A   17169.46771000 -.00000249  00000-0  00000-0 0  9992
2 29155   0.1725 272.7827 0004182 180.0857 267.1862  1.00281794 10441
METOP-A                 
1 29499U 06044A   17170.63433685 -.00000005  00000-0  17791-4 0  9996
2 29499  98.6779 230.2135 0001743 130.9814  24.6855 14.21502435553301
FENGYUN 2D              
1 29640U 06053A   17169.98025035 -.00000362  00000-0  10000-3 0  9997
2 29640   4.4552  64.3792 0005053 324.3245 355.3327  1.00274484 38616
FENGYUN 3A              
1 32958U 08026A   17166.31142104  .00000031  00000-0  14592-4 0  9999
2 32958  98.4094 195.0877 0009055 287.2271  72.8512 14.19663284469073
FENGYUN 2E              
1 33463U 08066A   17169.89677639 -.00000202  00000-0  00000-0 0  9993
2 33463   2.1859  67.2409 0004095 211.5011  37.8346  1.00279044 31140
NOAA 19                 
1 33591U 09005A   17170.60701960  .00000087  00000-0  72400-4 0  9992
2 33591  99.0925 137.4662 0012883 265.6352  94.3347 14.12188286430735
GOES 14                 
1 35491U 09033A   17169.54814163 -.00000093  00000-0  00000-0 0  9996
2 35491   0.2701 102.0018 0005056 114.9914 142.9775  1.00269763 29225
METEOR-M 1              
1 35865U 09049A   17170.49970978  .00000002  00000-0  19759-4 0  9995
2 35865  98.4215 192.0919 0003344 124.8171 235.3323 14.22112169402430
GOES 15                 
1 36411U 10008A   17169.63431645  .00000090  00000-0  00000-0 0  9999
2 36411   0.2035 103.1112 0002231  62.9931 193.9077  1.00268106 26732
COMS 1                  
1 36744U 10032A   17170.36073955 -.00000345  00000-0  00000-0 0  9997
2 36744   0.0187  51.2629 0000786  58.6549  55.9366  1.00270830 18155
FENGYUN 3B              
1 37214U 10059A   17170.44282830 -.00000006  00000-0  19562-4 0  9993
2 37214  98.8957 129.3589 0017733 130.0403 230.2326 14.15852807342866
ELEKTRO-L 1 (GOMS 2)    
1 37344U 11001A   17169.60728015 -.00000283  00000-0  00000-0 0  9991
2 37344   2.4414  77.9869 0003659 286.5093  72.9782  1.00201303 23549
SUOMI NPP               
1 37849U 11061A   17170.55998229 -.00000013  00000-0  14600-4 0  9995
2 37849  98.7355 109.2434 0001681 105.4061 355.6634 14.19551295292430
FENGYUN 2F              
1 38049U 12002A   17170.46264267 -.00000359  00000-0  00000-0 0  9990
2 38049   1.7205  78.1227 0003709 187.2678 281.2520  1.00272145 19952
METEOSAT-10 (MSG-3)     
1 38552U 12035B   17170.25648342 -.00000007  00000-0  00000-0 0  9992
2 38552   0.8631 352.7250 0002095 140.5662 226.7344  1.00266928 18288
METOP-B                 
1 38771U 12049A   17170.60316764 -.00000007  00000-0  16783-4 0  9998
2 38771  98.6785 230.7348 0000934 148.3029  13.4478 14.21502021246626
FENGYUN 3C              
1 39260U 13052A   17170.51727250  .00000005  00000-0  22681-4 0  9994
2 39260  98.6475 240.1629 0001241  55.7181 304.4115 14.19649631193713
METEOR-M 2              
1 40069U 14037A   17170.55733577 -.00000045  00000-0 -61601-6 0  9993
2 40069  98.6538 225.2343 0005013 197.2145 162.8866 14.20642749152890
HIMAWARI-8              
1 40267U 14060A   17169.86689481 -.00000277  00000-0  00000-0 0  9991
2 40267   0.0294  73.3787 0000921  82.6876 203.9441  1.00269536  9824
FENGYUN 2G              
1 40367U 14090A   17170.63535014 -.00000330  00000-0  00000-0 0  9994
2 40367   0.4314 255.0035 0003947 345.3887   0.7274  1.00281359  9104
METEOSAT-11 (MSG-4)     
1 40732U 15034A   17169.93840351 -.00000027  00000-0  00000-0 0  9996
2 40732   1.8186 241.0270 0000580 251.1962 109.4686  1.00268603  7105
ELEKTRO-L 2             
1 41105U 15074A   17170.56830059 -.00000099  00000-0  00000-0 0  9999
2 41105   0.0794 174.6081 0002228 272.7459 101.3336  1.00272306  5586
HIMAWARI-9              
1 41836U 16064A   17169.86649866 -.00000275  00000-0  00000-0 0  9991
2 41836   0.0230 352.4469 0001005 132.8591 234.7034  1.00270851  2365
GOES 16                 
1 41866U 16071A   17170.50444060 -.00000183  00000-0  00000-0 0  9992
2 41866   0.0029  81.7186 0000474  45.7899 232.4957  1.00270158  2172
FENGYUN 4A              
1 41882U 16077A   17170.63489522 -.00000332  00000-0  00000-0 0  9998
2 41882   0.0336 206.9863 0009356 240.0107 154.3543  1.00271192  2042
CYGFM05                 
1 41884U 16078A   17170.57426703  .00000412  00000-0  24178-4 0  9990
2 41884  34.9575  10.2406 0016389   0.7558 359.3176 15.13577710 28208
CYGFM04                 
1 41885U 16078B   17170.59253980  .00000402  00000-0  23381-4 0  9992
2 41885  34.9508   9.3465 0014862 359.6516   0.4183 15.13984387 28218
CYGFM02                 
1 41886U 16078C   17170.61002349  .00000453  00000-0  26210-4 0  9997
2 41886  34.9604   9.6152 0015480 359.6802   0.3897 15.13872525 28218
CYGFM01                 
1 41887U 16078D   17170.58028005  .00000406  00000-0  23908-4 0  9990
2 41887  34.9542  10.2455 0016762   1.4606 358.6152 15.13552604 28207
CYGFM08                 
1 41888U 16078E   17170.62865101  .00000415  00000-0  24268-4 0  9992
2 41888  34.9513   9.6518 0016048   1.3456 358.7296 15.13693208 28203
CYGFM06                 
1 41889U 16078F   17169.98333128  .00001105  00000-0  60926-4 0  9997
2 41889  34.9594  13.0164 0014318 352.7419   7.3083 15.14135374 28116
CYGFM07                 
1 41890U 16078G   17170.63079767  .00000420  00000-0  24196-4 0  9997
2 41890  34.9531   8.7423 0013993 359.3901   0.6791 15.14225566 28211
CYGFM03                 
1 41891U 16078H   17170.62573375  .00000423  00000-0  24372-4 0  9990
2 41891  34.9563   8.7441 0013492 358.9824   1.0858 15.14231465 28214
"
