"MACSAT 2 (M 2)          
1 20608U 90043B   13089.91457229  .00001093  00000-0  15556-3 0  9169
2 20608  89.7542  37.4739 0094565  56.9871   8.3091 14.73094571226801
TUBSAT A                
1 21577U 91050D   13090.94525740  .00000179  00000-0  72841-4 0  6255
2 21577  98.6556  54.6815 0005445 233.0411 159.3680 14.38855036139169
S80/T                   
1 22078U 92052C   13090.78224267 -.00000068  00000-0 -25022-4 0  3016
2 22078  66.0845 300.9534 0012026 325.2867 110.5201 12.86754334969757
HEALTHSAT 1             
1 22827U 93061E   13090.49309044  .00000194  00000-0  91055-4 0  3808
2 22827  98.6079  38.0426 0010091 118.5801 355.2847 14.30557227 17963
TUBSAT B                
1 22970U 94003B   13090.81025240  .00000478  00000-0  12115-2 0  1387
2 22970  82.5602 253.0977 0016427  32.9137  81.4141 13.16927137922094
CERISE                  
1 23606U 95033B   13090.50824784  .00001692  00000-0  19035-3 0   392
2 23606  98.3526 294.8598 0004822 311.2187  48.8612 14.88132795957295
UPM/LBSAT               
1 23607U 95033C   13090.84821782  .00000801  00000-0  12425-3 0  2484
2 23607  98.2242 213.9610 0007058 147.4972 330.5453 14.75934523953039
FAISAT 2V               
1 24954U 97052B   13090.27319490  .00000049  00000-0  32011-4 0  7414
2 24954  82.9266 359.7804 0039205 201.2878 310.4797 13.79771145781385
MUBLCOM                 
1 25736U 99026B   13090.77347270  .00000928  00000-0  27148-3 0  8767
2 25736  97.6737 279.4930 0006948 112.0508 248.1425 14.45906576730601
RUBIN-3 & SL-8 R/B      
1 27561U 02054C   13090.05469063  .00000501  00000-0  12676-3 0  8583
2 27561  98.0412 240.5406 0046004 263.4427 232.6359 14.54376494548453
APRIZESAT 2             
1 28366U 04025A   13090.88946567  .00000219  00000-0  84869-4 0  4471
2 28366  98.2639  36.4260 0108010 334.3869  57.2707 14.35961043458776
SAUDICOMSAT 1           
1 28369U 04025D   13091.16624861  .00000430  00000-0  11802-3 0  5074
2 28369  97.9900  79.0456 0035337  94.1003 330.0296 14.51203664463629
SAUDICOMSAT 2           
1 28370U 04025E   13090.51464216  .00000284  00000-0  89344-4 0  5029
2 28370  98.0970  62.7143 0059215 167.8827 341.1121 14.46281166461967
APRIZESAT 1             
1 28372U 04025G   13090.49643772  .00000316  00000-0  93982-4 0  4921
2 28372  98.0457  69.5271 0048240 131.3482  15.1754 14.48631526462721
NANOSAT-1               
1 28493U 04049B   13090.81163601  .00000712  00000-0  12333-3 0  5162
2 28493  98.3831 105.9115 0004629 186.4171 277.9622 14.71492725444538
SAUDICOMSAT 7           
1 31119U 07012C   13091.09646633  .00000391  00000-0  88456-4 0  8139
2 31119  97.8276 109.5493 0060827 228.8669 163.4141 14.60144507317385
SAUDICOMSAT 6           
1 31121U 07012E   13091.17790373  .00000390  00000-0  93251-4 0  8095
2 31121  97.8512  99.5789 0077129 262.6361 167.7623 14.56989446316728
SAUDICOMSAT 5           
1 31124U 07012H   13090.66413279  .00000383  00000-0  84327-4 0  8195
2 31124  97.8207 114.9583 0052602 213.5597 266.7987 14.61765600317668
SAUDICOMSAT 3           
1 31125U 07012J   13090.62552508  .00000415  00000-0  88070-4 0  8332
2 31125  97.8170 120.5776 0044641 197.6911 309.0650 14.63347513317996
SAUDICOMSAT 4           
1 31127U 07012L   13090.07995499  .00000352  00000-0  82827-4 0  8179
2 31127  97.8382 103.8354 0068596 248.3741 143.8198 14.58662264316918
APRIZESAT 4             
1 35684U 09041D   13090.90611007  .00000724  00000-0  10827-3 0  1522
2 35684  98.0596   7.4689 0049241  13.6521  51.4684 14.77023989197888
APRIZESAT 3             
1 35686U 09041F   13090.79036512  .00001216  00000-0  14582-3 0  1724
2 35686  98.1077  23.8552 0076767 334.6319 101.2488 14.83987832198756
AISSAT 1                
1 36797U 10035C   13091.13542514  .00000747  00000-0  10071-3 0  9473
2 36797  98.0358 175.2050 0011519 330.6119  29.4471 14.82129907147133
"
