"GOES 1 [-]              
1 08366U 75100A   13090.39006031 -.00000010  00000-0  00000+0 0  3446
2 08366  13.7809 335.4780 0003020 115.4302 115.9427  1.00241429136815
GOES 2 [-]              
1 10061U 77048A   13089.81220449  .00000062  00000-0  10000-3 0  5601
2 10061  14.5829 344.0187 0011972 291.6694  68.1893  0.99396187 75541
GOES 3 [P]              
1 10953U 78062A   13090.73700414 -.00000113  00000-0  10000-3 0  1565
2 10953  14.5267 347.6024 0006422  82.1404 277.9122  1.00279700 80547
GOES 4 [-]              
1 11964U 80074A   13090.39629336 -.00000075  00000-0  10000-3 0  7775
2 11964  15.1006 351.2649 0032725 339.9061  19.9505  0.99231606 79759
GOES 5 [-]              
1 12472U 81049A   13088.87804670  .00000080  00000-0  10000-3 0  6425
2 12472  14.6793   1.4467 0003146  91.4915 268.5261  1.00265291 74561
GOES 6 [-]              
1 14050U 83041A   13090.33271855  .00000030  00000-0  00000+0 0  6543
2 14050  14.6173   6.3043 0006262  73.3393  98.9628  1.00243624167675
GOES 7 [-]              
1 17561U 87022A   13090.29749070 -.00000140  00000-0  10000-3 0  8719
2 17561  14.2423  22.5791 0004834 345.4184  14.5386  0.99890126 78772
GOES 8 [-]              
1 23051U 94022A   13088.59429303 -.00000118  00000-0  10000-3 0  5073
2 23051   8.9085  55.5450 0003409 243.6136 116.3788  0.98906790 76384
GOES 9 [P]              
1 23581U 95025A   13089.32811232 -.00000119  00000-0  10000-3 0  7942
2 23581   8.4435  54.0607 0007503   7.6635 352.3702  0.98799576 65080
GOES 10 [-]             
1 24786U 97019A   13089.13240618 -.00000146  00000-0  10000-3 0  7195
2 24786   6.6867  57.5170 0024942 108.3692 251.9590  0.99126203 58227
GOES 11 [+]             
1 26352U 00022A   13089.92614549 -.00000190  00000-0  00000+0 0  1456
2 26352   1.7594 103.3331 0004049 347.0431  13.6785  0.99042712 47217
GOES 12 [B]             
1 26871U 01031A   13090.33458617 -.00000299  00000-0  00000+0 0  9922
2 26871   2.8877  70.1120 0004209 352.7719 186.5370  1.00262340 42877
GOES 13 [+]             
1 29155U 06018A   13090.33420502 -.00000266  00000-0  10000-3 0  4869
2 29155   0.3632 261.8704 0003220 154.6426 177.6705  1.00279163 25123
GOES 14 [S]             
1 35491U 09033A   13090.44644440 -.00000102  00000-0  00000+0 0  8958
2 35491   0.0784  83.7154 0002865 128.6386  31.7734  1.00271689 13795
GOES 15 [S]             
1 36411U 10008A   13090.33256609  .00000071  00000-0  10000-3 0  5067
2 36411   0.0078 173.3955 0001319 100.7070 259.4144  1.00280782 11294
"
