"CELESTIS-02             
1 25160U 98007D   13090.68890360 -.00000022  00000-0  48288-4 0  1598
2 25160 107.9528 343.3903 0061373 119.7593 276.3124 14.21076237784960
CELESTIS-03             
1 26034U 99070C   13090.84637653  .00003979  00000-0  46363-3 0  7301
2 26034  98.2298 174.9434 0016542 213.6897 146.3267 14.85756045715211
AMC-14                  
1 32708U 08011A   13088.89172073  .00000152  00000-0  00000+0 0   962
2 32708  16.0930  88.9403 0050675 352.7654  96.2631  1.00274767 19762
"
