"ALOUETTE 1 (S-27)       
1 00424U 62049A   13091.20044747  .00000084  00000-0  86245-4 0  1389
2 00424  80.4699 347.4992 0023927  80.1425  31.9680 13.68865945521032
IUE                     
1 10637U 78012A   13090.07643648 -.00000297  00000-0  00000+0 0  8780
2 10637  43.9641 357.0309 1479957 180.5629 179.2440  1.00075992 81296
IRAS                    
1 13777U 83004A   13090.80173212 -.00000035  00000-0  58894-5 0  1807
2 13777  99.0122 288.7028 0016466 354.1499 135.9146 14.00221705211211
AKEBONO (EXOS-D)        
1 19822U 89016A   13090.64806494  .00030956 -31434-7  84514-3 0  5076
2 19822  75.0634 122.8083 2405532 136.8932   6.8388 10.61450255736925
INTERCOSMOS 24          
1 20261U 89080A   13090.09938560  .00000527  00000-0  15085-3 0   176
2 20261  82.5878 286.2009 1211919  42.4812 326.3892 12.54300618 72869
COBE                    
1 20322U 89089A   13091.08605961 -.00000165  00000-0 -75346-4 0    64
2 20322  99.0026 102.2591 0007987 224.1386 167.7265 14.04546117197424
HST                     
1 20580U 90037B   13091.20446725  .00002065  00000-0  13593-3 0  2077
2 20580  28.4712  57.4129 0003055 250.4380 226.0611 15.03409354 58100
CRRES                   
1 20712U 90065A   13090.70842476  .00000418  00000-0  42302-3 0  6032
2 20712  17.5476 213.2479 7129726  59.2807  12.3847  2.43921811190733
SARA                    
1 21578U 91050E   13090.83364343  .00000819  00000-0  21531-3 0  7019
2 21578  98.4125  67.5017 0001815 236.9082 183.5227 14.51715956145052
ORBVIEW 1 (MICROLAB)    
1 23547U 95017C   13090.75226241  .00000695  00000-0  16916-3 0  1353
2 23547  69.9812 180.0232 0008064  77.7709 282.4331 14.56921119953996
RXTE (XTE)              
1 23757U 95074A   13089.71899014  .00006077  00000-0  14742-3 0  8696
2 23757  22.9885 209.7867 0006728 123.9048 347.2339 15.37218746957892
POLAR                   
1 23802U 96013A   13088.61330022  .00000057  00000-0  10000-3 0  4105
2 23802  81.0929 305.0653 6782267  26.5011 356.3534  1.29845861 82172
FAST                    
1 24285U 96049A   13091.12426557  .00009599  00000-0  81883-3 0  7277
2 24285  82.9619  78.8081 1954674  40.2466 332.7964 11.35896963674819
TRACE                   
1 25280U 98020A   13090.16107529  .00001873  00000-0  14318-3 0  4455
2 25280  97.5856 292.9183 0027706 258.4681 216.5066 15.02853673818383
SAFIR 2                 
1 25399U 98043F   13090.13867201  .00000157  00000-0  86187-4 0  4692
2 25399  98.3685  67.4366 0003019  98.1572 317.3362 14.24165413765178
SWAS                    
1 25560U 98071A   13090.45723827  .00001316  00000-0  14859-3 0  1706
2 25560  69.9006 159.2713 0010612 321.9307  38.1096 14.89035772776073
ASTRID 2                
1 25568U 98072B   13090.84850557  .00000101  00000-0  93818-4 0  2614
2 25568  82.9514  40.4831 0025254 170.8060 218.2141 13.72193240716406
ORSTED                  
1 25635U 99008B   13091.17990309  .00000434  00000-0  11305-3 0  7788
2 25635  96.4731 336.7030 0143529 108.7580   7.6960 14.46607475743756
SUNSAT (SO-35)          
1 25636U 99008C   13091.18311280  .00000183  00000-0  54595-4 0  4669
2 25636  96.4689 325.8600 0148216 158.6844 316.1708 14.43888129742779
ABRIXAS                 
1 25721U 99022A   13090.13872807  .00005331  00000-0  19787-3 0  6521
2 25721  48.4568 129.7828 0017225  54.4661 349.0555 15.28931371771257
TERRIERS                
1 25735U 99026A   13091.14082545  .00003344  00000-0  12048-3 0  8431
2 25735  97.0835 281.9930 0006676 170.7565 258.0058 15.29193969769884
FUSE 1                  
1 25791U 99035A   13091.13427888  .00000419  00000-0  71362-4 0  4885
2 25791  24.9842 122.1209 0010739  56.6524 341.2703 14.42133325726351
CXO                     
1 25867U 99040B   13091.21735796  .00000176  00000-0  00000+0 0  8817
2 25867  74.9339 344.3183 8627984 277.7775 359.9351  0.37801683 10245
CLEMENTINE              
1 25978U 99064B   13090.38895616  .00002497  00000-0  27343-3 0  8935
2 25978  98.1452 215.2991 0008528 299.8608  92.6908 14.88731322721403
XMM-NEWTON              
1 25989U 99066A   13091.07394540  .00000239  00000-0  00000+0 0  3750
2 25989  64.0716  71.0537 7173599  95.0772   0.4175  0.50128517 13171
TERRA                   
1 25994U 99068A   13091.14498278  .00000345  00000-0  86663-4 0  9791
2 25994  98.2111 167.1725 0001140  96.2978 263.8370 14.57103942706692
ACRIMSAT                
1 26033U 99070B   13090.51293332  .00000243  00000-0  58160-4 0  8183
2 26033  97.8134 288.7044 0029338 159.4035 252.9968 14.61062068707495
IMAGE                   
1 26113U 00017A   13090.29718718  .00000140  00000-0  12892-1 0  3663
2 26113  92.9769 230.0495 7517242 122.4347 345.9972  1.68641583 80145
CLUSTER II-FM6 (SALSA)  
1 26410U 00041A   13090.49400280  .00001917  00000-0  00000+0 0  9478
2 26410 137.5216 304.3910 7746347 117.9451   0.7677  0.44223138 10696
CLUSTER II-FM7 (SAMBA)  
1 26411U 00041B   13085.96844038  .00002239  00000-0  00000+0 0  9184
2 26411 137.5576 304.2278 7757270 117.7502   0.4118  0.44214598 10758
CLUSTER II-FM5 (RUMBA)  
1 26463U 00045A   13090.49397350  .00002048  00000-0  00000+0 0  9378
2 26463 140.4378 301.4950 7709637 116.5594   0.7828  0.44223547 11279
CLUSTER II-FM8 (TANGO)  
1 26464U 00045B   13085.00000000  .00002225  00000-0  00000+0 0  8627
2 26464 137.5973 303.5663 7713122 117.5114 205.7264  0.44207394 10592
MEGSAT-1                
1 26546U 00057B   13090.53851198  .00001393  00000-0  17181-3 0  8680
2 26546  64.5559  98.9720 0047600 257.8215 246.8709 14.86340419677580
HETE-2                  
1 26561U 00061A   13089.10056591  .00002218  00000-0  10898-3 0  8479
2 26561   1.9451  64.9169 0021578 304.4845  55.3038 14.99574931682572
MUNIN                   
1 26621U 00075C   13091.12817791  .00000824  00000-0  75165-3 0  6234
2 26621  95.4110 165.7693 0716405  75.7994 345.6290 13.03890439588044
ODIN                    
1 26702U 01007A   13090.49241898  .00002147  00000-0  18150-3 0  9131
2 26702  97.6386 105.9542 0004160 155.0170 205.1255 14.99095256660376
TIMED                   
1 26998U 01055B   13091.12544068  .00000778  00000-0  94574-4 0  4551
2 26998  74.0720 131.0417 0002564 255.4314 104.6581 14.85405159612875
RHESSI                  
1 27370U 02004A   13090.81219193  .00004340  00000-0  27851-3 0   833
2 27370  38.0376 300.1863 0014970 298.8886 167.7328 15.08598393612159
INTEGRAL                
1 27540U 02048A   13091.00000000  .00000184  00000-0  00000+0 0  2700
2 27540  61.7636 265.7865 8732317 253.4395   0.9080  0.33418510  8921
FEDSAT                  
1 27598U 02056B   13090.62302530  .00000110  00000-0  60280-4 0  9271
2 27598  98.2560  94.9607 0010454 107.6675  13.5024 14.28223304536697
WEOS                    
1 27599U 02056C   13090.66986916  .00000158  00000-0  78707-4 0  9301
2 27599  98.2464 103.6452 0011265 115.9949 358.5742 14.28848041536908
MICRO LABSAT            
1 27600U 02056D   13090.05948368  .00000113  00000-0  60678-4 0  8944
2 27600  98.2414 102.2605 0012194 118.7117 306.2685 14.29106035536931
CORIOLIS                
1 27640U 03001A   13090.66756184  .00000106  00000-0  72318-4 0  1432
2 27640  98.7572  99.7032 0014834  49.2727  61.4734 14.18579361529781
CHIPSAT                 
1 27643U 03002B   13091.15623411  .00002702  00000-0  21580-3 0  3471
2 27643  94.0155 302.7070 0011942 171.6643 336.3166 15.00440537558186
SORCE                   
1 27651U 03004A   13089.87792022  .00001242  00000-0  15980-3 0   644
2 27651  39.9950 237.7966 0026587 252.1218 240.7869 14.84371386551593
GALEX                   
1 27783U 03017A   13091.15381791  .00000732  00000-0  12656-3 0  7473
2 27783  28.9982 112.5257 0004144  18.0305  34.9792 14.60620878530228
MOST                    
1 27843U 03031D   13090.79312008  .00000175  00000-0  10224-3 0  6176
2 27843  98.7182  99.7897 0011008 124.7110 339.7967 14.20286976505566
QUAKESAT                
1 27845U 03031F   13090.67583821  .00000338  00000-0  17599-3 0  6610
2 27845  98.7119 100.8849 0010001 131.0308 347.7023 14.20946138505588
AAU CUBESAT             
1 27846U 03031G   13090.24493118  .00000214  00000-0  11788-3 0  5293
2 27846  98.6914 100.6443 0010487  92.2610  36.8906 14.21412560505787
SCISAT 1                
1 27858U 03036A   13091.15010810  .00000489  00000-0  76703-4 0  9046
2 27858  73.9357 340.1129 0007081  75.2211  77.8074 14.75623802518779
STSAT-1                 
1 27945U 03042G   13090.51538498  .00000351  00000-0  75868-4 0  8347
2 27945  97.7995 282.7416 0013704  86.3498 307.5704 14.63664344507883
GP-B                    
1 28230U 04014A   13091.17331089  .00000580  00000-0  80390-4 0  6994
2 28230  89.9040 145.6090 0002062 122.5369 293.3277 14.76879441481951
DEMETER                 
1 28368U 04025C   13091.11950068  .00000707  00000-0  12041-3 0  8604
2 28368  97.8208 138.6939 0001793 123.0668 237.0727 14.71896770469151
DOUBLESTAR TC-2         
1 28382U 04029A   13088.98823119  .00000242  00000-0  12328-2 0  2167
2 28382  88.3758 320.9791 7294280  36.6016 355.9600  2.15614583 67162
SWIFT                   
1 28485U 04047A   13090.22439037  .00003023  00000-0  22610-3 0  4059
2 28485  20.5584  42.6770 0013369 332.4217 163.5952 14.96006014456729
SUZAKU (ASTRO-EII)      
1 28773U 05025A   13090.15968508  .00002834  00000-0  18923-3 0  9863
2 28773  31.3831 129.2984 0006381 125.3890 290.8957 15.05095057424332
AKARI (ASTRO-F)         
1 28939U 06005A   13090.16312714  .00006882  00000-0  36699-3 0  1475
2 28939  98.2444 139.6535 0170962  37.0891 356.3989 15.03749418379744
FORMOSAT-3 FM6          
1 29047U 06011A   13090.11901491  .00000282  00000-0  12954-3 0   626
2 29047  71.9792  85.5993 0053780 283.9567 140.6347 14.27625868365043
FORMOSAT-3 FM1          
1 29048U 06011B   13090.14771959  .00000314  00000-0  14260-3 0  1421
2 29048  71.9720 359.3895 0046386 238.1649 270.3086 14.27627700367528
FORMOSAT-3 FM5          
1 29049U 06011C   13090.77568152  .00000253  00000-0  11864-3 0   800
2 29049  72.0203 154.9036 0037511 285.8908 180.1730 14.27641768363395
FORMOSAT-3 FM3          
1 29050U 06011D   13090.82322799  .00000860  00000-0  20374-3 0  4111
2 29050  72.0181 204.8595 0051330  65.2299  79.3257 14.55744227372449
FORMOSAT-3 FM4          
1 29051U 06011E   13090.17479365  .00000287  00000-0  12984-3 0  1345
2 29051  72.0074  62.7953 0068502 161.3182 285.3275 14.27645802365896
FORMOSAT-3 FM2          
1 29052U 06011F   13090.62913819  .00000249  00000-0  11643-3 0  1566
2 29052  72.0338 128.2911 0043157 254.2705 252.1065 14.27699845364269
CLOUDSAT                
1 29107U 06016A   13090.96071302 -.00003190  00000-0 -69877-3 0  2249
2 29107  98.2314  36.1698 0001080 106.1250 254.0586 14.57073440368434
CALIPSO                 
1 29108U 06016B   13090.95964403  .00000677  00000-0  16032-3 0  2545
2 29108  98.2295  35.7020 0001266  84.6229 275.5142 14.57090721368368
HINODE (SOLAR-B)        
1 29479U 06041A   13090.51120091  .00000609  00000-0  12737-3 0   522
2 29479  98.1160  90.9509 0017858  21.0243 135.3661 14.63153483348245
SJ-6C                   
1 29505U 06046A   13091.18873110  .00000112  00000-0  16502-4 0  1826
2 29505  97.7409  87.1537 0003565 137.2305 222.9182 14.91919996350327
SJ-6D                   
1 29506U 06046B   13091.10189056  .00000009  00000-0  64740-5 0  1562
2 29506  97.7517  85.7166 0001464 176.2513 183.8715 14.91108394350149
COROT                   
1 29678U 06063A   13090.85006830  .00000166  00000-0  10890-3 0   692
2 29678  90.0219  10.7316 0007019 122.2972 303.8821 13.98330022319453
AGILE                   
1 31135U 07013A   13091.00812104  .00003929  00000-0  15187-3 0  7811
2 31135   2.4686  92.8685 0018442  46.1917 313.9997 15.15292416328725
AIM                     
1 31304U 07015A   13090.92246358  .00003273  00000-0  28475-3 0  9990
2 31304  97.8494 206.3228 0009526 304.7498 194.7579 14.97641077323381
FGRST (GLAST)           
1 33053U 08029A   13090.83507125  .00001701  00000-0  92319-4 0  2953
2 33053  25.5840   7.7517 0013480 169.3368 240.2178 15.06902398264648
KORONAS-FOTON           
1 33504U 09003A   13091.17514713  .00001523  00000-0  95842-4 0  5584
2 33504  82.4702 314.1913 0020230  14.0512 133.9132 15.08331375229047
TATIANA 2               
1 35868U 09049D   13091.07353560  .00000068  00000-0  49910-4 0  3552
2 35868  98.6097 145.9426 0003534 291.1308  68.9497 14.22344885183557
UGATUSAT                
1 35869U 09049E   13091.14775739  .00000023  00000-0  29937-4 0  3038
2 35869  98.6055 145.3674 0004124 308.1032  51.9768 14.22118579183541
SUMBANDILA (SO-67)      
1 35870U 09049F   13091.15650567  .00004227  00000-0  16563-3 0  9274
2 35870  97.1993 122.6703 0000939 172.0589 260.2709 15.26297045196505
WISE                    
1 36119U 09071A   13090.52100855  .00002510  00000-0  13079-3 0  9515
2 36119  97.5207  98.4676 0001691 341.6116 170.6182 15.16915325182027
SDO                     
1 36395U 10005A   13089.31215884 -.00000058  00000-0  00000+0 0  7042
2 36395  27.8319 168.7108 0001315 238.5257 150.6891  1.00275503 11657
CRYOSAT 2               
1 36508U 10013A   13090.83505929  .00000199  00000-0  48359-4 0  9094
2 36508  92.0224 190.1043 0010704 163.4369 344.2677 14.52181651157926
PICARD                  
1 36598U 10028A   13091.09559183  .00000093  00000-0  35335-4 0   576
2 36598  98.2940 277.1699 0002726  36.1031 324.0339 14.49743905147830
SPEKTR-R                
1 37755U 11037A   13067.72276695 -.00000035  00000-0  00000+0 0   438
2 37755  74.2368 293.0410 6947667 359.9632   4.1844  0.11478463   713
GCOM-W1 (SHIZUKU)       
1 38337U 12025A   13091.09256341  .00000385  00000-0  95585-4 0  3781
2 38337  98.2066  32.5146 0001757  80.5107 279.6303 14.57083967 46380
NUSTAR                  
1 38358U 12031A   13090.07326096  .00001880  00000-0  14607-3 0  1675
2 38358   6.0264 284.9974 0012914 156.1168 203.9791 14.82576401 43168
NEOSSAT                 
1 39089U 13009D   13091.10552750  .00000079  00000-0  44135-4 0   382
2 39089  98.6291 281.3600 0011304 163.2112 196.9437 14.33872030  4948
BRITE-AUSTRIA           
1 39091U 13009F   13090.67244629  .00000033  00000-0  27369-4 0   378
2 39091  98.6292 280.9585 0010492 179.1814 180.9376 14.34477278  4885
UNIBRITE                
1 39092U 13009G   13090.32666201  .00000110  00000-0  54898-4 0   402
2 39092  98.6284 280.6038 0009669 172.6428 187.4885 14.34351337  4839
"
