"STARLETTE               
1 07646U 75010A   19203.83430043 -.00000134  00000-0  83590-5 0  9995
2 07646  49.8252 336.4066 0205781  14.0041 346.6444 13.82306122245758
LAGEOS 1                
1 08820U 76039A   19203.93647912  .00000021  00000-0  00000-0 0  9992
2 08820 109.8522  35.7141 0044146 122.1352 191.4777  6.38664832752436
AJISAI (EGS)            
1 16908U 86061A   19203.89403747 -.00000092  00000-0  39961-4 0  9996
2 16908  50.0111 340.1107 0011250 242.1553 299.0875 12.44489930166570
LAGEOS 2                
1 22195U 92070B   19203.87198198 -.00000009  00000-0  00000-0 0  9993
2 22195  52.6667  60.0938 0138363 164.6048 148.5979  6.47293741632403
STELLA                  
1 22824U 93061B   19203.88602715 -.00000053  00000-0 -26141-5 0  9998
2 22824  98.9255 182.0945 0006298 354.4258  38.8239 14.27377412345242
LARES                   
1 38077U 12006A   19203.67033392 -.00000021  00000-0  10881-3 0  9997
2 38077  69.4936 279.2147 0011540 261.3546  98.6173 12.54930941340812
"
