"AKEBONO (EXOS-D)        
1 19822U 89016A   19203.86042413  .00021982 -68738-7  39437-3 0  9990
2 19822  75.0266 109.7499 1783020  99.7215 280.8827 11.96851030999841
HST                     
1 20580U 90037B   19203.81766292  .00000337  00000-0  95608-5 0  9996
2 20580  28.4705 346.2796 0002798 129.4519  19.4471 15.09246815405968
POLAR                   
1 23802U 96013A   19198.90811376  .00000161  00000-0  00000+0 0  9994
2 23802  78.6929 254.7156 6670729 294.4678  12.0767  1.29845779112037
SWAS                    
1 25560U 98071A   19203.93418021  .00000053  00000-0  13558-4 0  9990
2 25560  69.8991 135.1656 0005478 130.8494 229.3137 14.93754715119668
ORSTED                  
1 25635U 99008B   19203.81401050  .00000028  00000-0  14666-4 0  9998
2 25635  96.4847 300.2248 0137706 325.9505  33.2914 14.48156451 76760
CXO                     
1 25867U 99040B   19206.24579674  .00000592  00000-0  00000-0 0  9998
2 25867  67.2500 274.8695 7256736 233.2119   0.2474  0.37801674  7817
XMM-NEWTON              
1 25989U 99066A   19205.48438411 -.00000165  00000-0  00000+0 0  9995
2 25989  71.0096 331.0960 7569891  94.8180   0.5220  0.50133166 24735
TERRA                   
1 25994U 99068A   19204.21337195  .00000149  00000-0  43184-4 0  9996
2 25994  98.2032 278.2360 0001131  90.1687 269.9659 14.57113362 42229
CLUSTER II-FM7 (SAMBA)  
1 26410U 00041A   19204.11710356  .00000158  00000-0  00000-0 0  9992
2 26410 131.3271 339.1520 4147943 173.9498 359.2688  0.44202800  9133
CLUSTER II-FM6 (SALSA)  
1 26411U 00041B   19204.07373893  .00000000  00000-0  00000-0 0  9995
2 26411 130.8286 340.2841 5213920 181.1595 359.2400  0.44245503  9175
CLUSTER II-FM5 (RUMBA)  
1 26463U 00045A   19206.65788447  .00000148  00000-0  00000+0 0  9999
2 26463 134.4304 339.5586 4869317 180.3533 359.1499  0.44240059 21474
CLUSTER II-FM8 (TANGO)  
1 26464U 00045B   19203.07409200  .00000136  00000-0  00000-0 0  9998
2 26464 131.3218 339.1404 4145082 173.9016 193.5107  0.44219358  9144
ODIN                    
1 26702U 01007A   19203.93045010  .00000562  00000-0  40758-4 0  9993
2 26702  97.5719 221.1464 0009857 326.5539  33.5066 15.07869508  6401
TIMED                   
1 26998U 01055B   19204.18549165  .00000005  00000-0  46169-5 0  9996
2 26998  74.0707 230.6303 0001255 315.9665  44.1416 14.88121079955411
RHESSI                  
1 27370U 02004A   19203.87463559  .00000837  00000-0  31371-4 0  9994
2 27370  38.0338  49.0664 0011384 162.0825 198.0348 15.31647111963603
INTEGRAL                
1 27540U 02048A   19202.07726590  .00000784  00000-0  00000+0 0  9990
2 27540  50.0009 141.1469 8808414 279.7696   3.5863  0.37597293 17142
CORIOLIS                
1 27640U 03001A   19203.93311419 -.00000007  00000-0  17663-4 0  9994
2 27640  98.7311 213.3286 0012934 267.1045 158.8192 14.19013297856560
SORCE                   
1 27651U 03004A   19203.86192686 -.00000016  00000-0  12487-4 0  9993
2 27651  39.9969  13.4882 0023765 221.0601 138.8399 14.89014002894909
MOST                    
1 27843U 03031D   19203.87330851 -.00000028  00000-0  71346-5 0  9998
2 27843  98.7103 210.9863 0009472 333.2627  26.8061 14.20592958832664
SCISAT 1                
1 27858U 03036A   19203.92254458 -.00000012  00000-0  32918-5 0  9998
2 27858  73.9337 117.2630 0007063  33.6577 326.5045 14.77252502858844
SWIFT                   
1 28485U 04047A   19203.28056162  .00000602  00000-0  10479-4 0  9990
2 28485  20.5556 182.8725 0011190 187.1206 172.9070 15.04406105803533
FORMOSAT-3 FM6          
1 29047U 06011A   19203.92766646  .00000037  00000-0  30797-4 0  9991
2 29047  71.9789  64.5789 0051713 271.8816  87.6398 14.28686645694116
FORMOSAT-3 FM1          
1 29048U 06011B   19203.86777420  .00000110  00000-0  59594-4 0  9995
2 29048  71.9677 335.9966 0044907 230.5987 129.1170 14.28641331696590
FORMOSAT-3 FM5          
1 29049U 06011C   19203.25737416  .00000049  00000-0  35824-4 0  9991
2 29049  72.0204 147.0126 0036825 260.6781  99.0191 14.28727922692297
FORMOSAT-3 FM3          
1 29050U 06011D   19203.83962084  .00000115  00000-0  34659-4 0  9997
2 29050  72.0169 325.6825 0050609 207.4552 152.3926 14.58814952708111
FORMOSAT-3 FM4          
1 29051U 06011E   19203.75442930  .00000012  00000-0  20312-4 0  9999
2 29051  72.0054  48.6814 0067346 137.5995 223.0374 14.28755418694952
FORMOSAT-3 FM2          
1 29052U 06011F   19204.12729867  .00000054  00000-0  37506-4 0  9998
2 29052  72.0350 121.1425 0041306 220.6889 139.1161 14.28853560693330
CLOUDSAT                
1 29107U 06016A   19204.16067741  .00000074  00000-0  24054-4 0  9990
2 29107  98.1890 148.3705 0001786  26.5679 333.5613 14.62325269704219
CALIPSO                 
1 29108U 06016B   19204.16035677  .00000057  00000-0  20609-4 0  9997
2 29108  98.1885 148.1915 0001559  83.3539 276.7839 14.62322199704069
HINODE (SOLAR-B)        
1 29479U 06041A   19203.92709429  .00000007  00000-0  10357-4 0  9996
2 29479  98.1661 213.1077 0016384 333.4620  26.5742 14.65004017685494
SJ-6C                   
1 29505U 06046A   19204.10530812 -.00000599  00000-0 -49897-4 0  9999
2 29505  97.8240 213.8170 0003743 108.4699 251.6915 14.94719659694260
SJ-6D                   
1 29506U 06046B   19204.23425128 -.00000089  00000-0 -30160-5 0  9995
2 29506  97.8438 213.8794 0003230 123.8411 236.3130 14.93452528693880
AGILE                   
1 31135U 07013A   19203.53001783  .00001689  00000-0  17521-4 0  9990
2 31135   2.4672 259.6815 0011825  48.5229 311.5839 15.31666972681202
AIM                     
1 31304U 07015A   19203.70988405  .00000323  00000-0  22256-4 0  9999
2 31304  97.9525  68.2630 0006443  57.1458 303.0392 15.13149948670662
FGRST (GLAST)           
1 33053U 08029A   19203.37656977  .00000378  00000-0  47758-5 0  9992
2 33053  25.5812 194.8169 0012609 134.5929 225.5637 15.11236174613177
WISE                    
1 36119U 09071A   19203.70898144  .00000404  00000-0  16636-4 0  9997
2 36119  97.3694 238.5893 0004217 108.9293 251.2404 15.29657757533232
SDO                     
1 36395U 10005A   19203.31477524 -.00000071  00000-0  00000-0 0  9999
2 36395  29.7847 126.9698 0001701  25.9878 158.2567  1.00271030 34773
CRYOSAT 2               
1 36508U 10013A   19203.92093724  .00000066  00000-0  15444-4 0  9992
2 36508  92.0205  27.6307 0004924 249.9599 110.1078 14.52181013492305
X-SAT                   
1 37389U 11015C   19204.15007907 -.00000014  00000-0  12070-4 0  9993
2 37389  98.4835 266.6686 0014306 171.2169 188.9274 14.24374674429264
GCOM-W1 (SHIZUKU)       
1 38337U 12025A   19203.96458090  .00000014  00000-0  13190-4 0  9993
2 38337  98.2048 143.6741 0000272 136.6025 265.4258 14.57120064381876
NUSTAR                  
1 38358U 12031A   19203.54285939  .00000806  00000-0  10505-4 0  9993
2 38358   6.0258 152.5054 0011696 163.7132 196.3373 14.88168849386633
RBSP A                  
1 38752U 12046A   19203.34666074  .00006979  00000-0  55957-3 0  9994
2 38752   9.6100 190.2925 6954494 120.3648 325.1476  2.72984863 67466
RBSP B                  
1 38753U 12046B   19203.11783834  .00012750  00000-0  80694-3 0  9994
2 38753   9.6990 205.2547 6971538  92.0565 342.0934  2.71240213 66933
NEOSSAT                 
1 39089U 13009D   19203.65248676 -.00000048  00000-0 -16825-5 0  9992
2 39089  98.4935  46.6555 0011043 184.2542 175.8551 14.34468300335135
IRIS                    
1 39197U 13033A   19204.11440165  .00000053  00000-0  14431-4 0  9992
2 39197  97.9502  25.0436 0026854 215.6478 144.2940 14.78644254327282
HISAKI (SPRINT-A)       
1 39253U 13049A   19204.04057430  .00000125  00000-0  84125-4 0  9990
2 39253  29.7204  73.1641 0136915 104.6723 256.9069 13.55212120290200
CASSIOPE                
1 39265U 13055A   19203.87334707  .00002756  00000-0  78000-4 0  9992
2 39265  80.9695 299.5279 0668104 187.8934 171.1316 14.27653134300607
STSAT-3                 
1 39422U 13066G   19204.12404456 -.00000032  00000-0  21869-5 0  9995
2 39422  97.5538 247.4151 0022079 209.1202 150.8785 14.89743031307957
SWARM B                 
1 39451U 13067A   19203.87249421  .00000183  00000-0  65366-5 0  9994
2 39451  87.7515  18.8563 0003622  71.2687 288.8951 15.21578793299696
SWARM A                 
1 39452U 13067B   19203.89870381  .00000603  00000-0  12233-4 0  9993
2 39452  87.3461 250.9760 0002531  98.7509 261.4035 15.43937571318178
SWARM C                 
1 39453U 13067C   19203.89860416  .00000594  00000-0  12028-4 0  9993
2 39453  87.3462 252.4123 0002529  98.9167 261.2376 15.43937395318135
BRITE-TORONTO           
1 40020U 14033L   19204.13267677 -.00000006  00000-0  72939-5 0  9994
2 40020  97.7453  46.0541 0088567  47.3779 313.4851 14.66579573272351
OCO 2                   
1 40059U 14035A   19204.15954781 -.00000005  00000-0  89715-5 0  9998
2 40059  98.2040 144.5906 0001232  85.5731 274.5608 14.57113568268930
BRITE-PL 2              
1 40119U 14049B   19204.23344848  .00000074  00000-0  15235-4 0  9996
2 40119  97.9051 294.5704 0018885 107.1015 253.2270 14.84411743266792
RESURS P2               
1 40360U 14087A   19204.16934559  .00000276  00000-0  10986-4 0  9994
2 40360  97.2590 294.2180 0007807 292.1903 155.1384 15.33147676255700
MMS 1                   
1 40482U 15011A   19194.71760397 -.00002293  00000-0  00000+0 0  9996
2 40482  14.5183 118.3053 9015604  14.6412  81.9539  0.28581536 10246
MMS 2                   
1 40483U 15011B   19199.28700103 -.00001921  00000-0  00000+0 0  9990
2 40483  15.0348 118.5632 9015325  14.5663 191.4786  0.28513045 10238
MMS 3                   
1 40484U 15011C   19193.90211348 -.00002262  00000-0  10000-3 0  9996
2 40484  14.4968 118.3316 9015114  14.6870 358.1466  0.28396727 10226
MMS 4                   
1 40485U 15011D   19202.47034373 -.00001684  00000-0  00000+0 0  9993
2 40485  15.3565 118.8384 9005125  14.4243 158.4969  0.28583917 10243
ASTROSAT                
1 40930U 15052A   19203.53611516  .00000681  00000-0  65856-5 0  9992
2 40930   5.9955 180.9086 0009040 267.9978  91.9114 14.76259692206233
DAMPE                   
1 41173U 15078A   19204.19590572 -.00000064  00000-0  25029-6 0  9996
2 41173  97.3053 201.2670 0013398 342.2546  81.8496 15.23800049200104
PISAT                   
1 41784U 16059B   19203.71828519  .00000059  00000-0  20582-4 0  9996
2 41784  98.0666 263.2764 0030553 275.1175  84.6540 14.63439947150536
HXMT (HUIYAN)           
1 42758U 17034A   19204.04282488  .00000050  00000-0  16874-4 0  9998
2 42758  43.0199  48.3018 0009391 108.1341  28.3159 15.08619767115968
FLYING LAPTOP           
1 42831U 17042G   19203.89142550  .00000038  00000-0  92187-5 0  9994
2 42831  97.5611  95.4181 0012926 311.4944  48.5165 14.91014375110032
PICSAT                  
1 43132U 18004X   19204.18365488  .00000768  00000-0  35049-4 0  9991
2 43132  97.4866 271.9324 0011093 128.0775 232.1464 15.23620918 84750
ZHANGZHENG-1 (CSES)     
1 43194U 18015C   19204.24050751  .00000416  00000-0  21840-4 0  9996
2 43194  97.3974 329.3762 0015356 183.9107 176.2013 15.20967446 81477
"
